Project 1: Exploratory Data Analysis
…
nfl %>% filter(year == "2012", week == "1") %>% select(team, 
    team_name, points_for) %>% arrange(desc(points_for))

## # A tibble: 32 x 3
##    team        team_name points_for
##    <chr>       <chr>          <dbl>
##  1 New England Patriots         557
##  2 Denver      Broncos          481
##  3 New Orleans Saints           461
##  4 Washington  Redskins         436
##  5 Green Bay   Packers          433
##  6 New York    Giants           429
##  7 Atlanta     Falcons          419
##  8 Houston     Texans           416
##  9 Seattle     Seahawks         412
## 10 Baltimore   Ravens           398
## # … with 22 more rows

nfl %>% mutate(win_percentage = wins/(wins + loss))

## # A tibble: 10,846 x 18
##    team  team_name  year  total   home   away  week weekly_attendan…  wins  loss
##    <chr> <chr>     <dbl>  <dbl>  <dbl>  <dbl> <dbl>            <dbl> <dbl> <dbl>
##  1 Ariz… Cardinals  2000 893926 387475 506451     1            77434     3    13
##  2 Ariz… Cardinals  2000 893926 387475 506451     2            66009     3    13
##  3 Ariz… Cardinals  2000 893926 387475 506451     3               NA     3    13
##  4 Ariz… Cardinals  2000 893926 387475 506451     4            71801     3    13
##  5 Ariz… Cardinals  2000 893926 387475 506451     5            66985     3    13
##  6 Ariz… Cardinals  2000 893926 387475 506451     6            44296     3    13
##  7 Ariz… Cardinals  2000 893926 387475 506451     7            38293     3    13
##  8 Ariz… Cardinals  2000 893926 387475 506451     8            62981     3    13
##  9 Ariz… Cardinals  2000 893926 387475 506451     9            35286     3    13
## 10 Ariz… Cardinals  2000 893926 387475 506451    10            52244     3    13
## # … with 10,836 more rows, and 8 more variables: points_for <dbl>,
## #   points_against <dbl>, simple_rating <dbl>, offensive_ranking <dbl>,
## #   defensive_ranking <dbl>, playoffs <chr>, sb_winner <chr>,
## #   win_percentage <dbl>
…
